ℹ Installing treeHeightImputation in temporary library
ℹ Building vignettes for treeHeightImputation
--- re-building ‘An_Introduction_to_treeHeightImputation.Rmd’ using rmarkdown


processing file: An_Introduction_to_treeHeightImputation.Rmd
1/1
output file: An_Introduction_to_treeHeightImputation.knit.md

Warning: The vignette title specified in \VignetteIndexEntry{} is different from the title in the YAML metadata. The former is "An Introduction to treeHeightImputation", and the latter is "An Introduction to *treeHeightImputation*". If that is intentional, you may set options(rmarkdown.html_vignette.check_title = FALSE) to suppress this check.
/usr/bin/pandoc +RTS -K512m -RTS An_Introduction_to_treeHeightImputation.knit.md --to html4 --from markdown+autolink_bare_uris+tex_math_single_backslash --output /home/qwer/git/cyclops/fvafrcu/treeHeightImputation/vignettes/An_Introduction_to_treeHeightImputation.html --lua-filter /home/qwer/svn/R/r-devel/build/library/rmarkdown/rmarkdown/lua/pagebreak.lua --lua-filter /home/qwer/svn/R/r-devel/build/library/rmarkdown/rmarkdown/lua/latex-div.lua --self-contained --section-divs --template /home/qwer/svn/R/r-devel/build/library/rmarkdown/rmd/h/default.html --highlight-style pygments --css /home/qwer/svn/R/r-devel/build/library/rmarkdown/rmarkdown/templates/html_vignette/resources/vignette.css --mathjax --variable 'mathjax-url=https://mathjax.rstudio.com/latest/MathJax.js?config=TeX-AMS-MML_HTMLorMML' --include-in-header /tmp/Rtmpzl73bd/rmarkdown-str3c613563d6a6.html 

Output created: An_Introduction_to_treeHeightImputation.html


processing file: An_Introduction_to_treeHeightImputation.Rmd
1/1
output file: An_Introduction_to_treeHeightImputation.R

--- finished re-building ‘An_Introduction_to_treeHeightImputation.Rmd’

ℹ Copying vignettes
ℹ Moving 'An_Introduction_to_treeHeightImputation.html' and
  'An_Introduction_to_treeHeightImputation.R' to 'doc/'
ℹ Copying 'An_Introduction_to_treeHeightImputation.Rmd' to 'doc/'
ℹ Building vignette index


processing file: /home/qwer/git/cyclops/fvafrcu/treeHeightImputation/vignettes/An_Introduction_to_treeHeightImputation.Rmd
1/1
output file: /home/qwer/git/cyclops/fvafrcu/treeHeightImputation/inst/vignettes_code/An_Introduction_to_treeHeightImputation.R

Warning message:
In dir.create(output_dir) :
  '/home/qwer/git/cyclops/fvafrcu/treeHeightImputation/inst/vignettes_code' already exists
